<?xml version="1.0" encoding="UTF-8" standalone="no"?>
<!-- Created with Inkscape (http://www.inkscape.org/) -->

<svg
   xmlns:dc="http://purl.org/dc/elements/1.1/"
   xmlns:cc="http://creativecommons.org/ns#"
   xmlns:rdf="http://www.w3.org/1999/02/22-rdf-syntax-ns#"
   xmlns:svg="http://www.w3.org/2000/svg"
   xmlns="http://www.w3.org/2000/svg"
   xmlns:sodipodi="http://sodipodi.sourceforge.net/DTD/sodipodi-0.dtd"
   xmlns:inkscape="http://www.inkscape.org/namespaces/inkscape"
   width="210mm"
   height="297mm"
   viewBox="0 0 210 297"
   version="1.1"
   id="svg8"
   inkscape:version="0.92.3 (2405546, 2018-03-11)"
   sodipodi:docname="SyAn.svg">
  <defs
     id="defs2" />
  <sodipodi:namedview
     id="base"
     pagecolor="#ffffff"
     bordercolor="#666666"
     borderopacity="1.0"
     inkscape:pageopacity="0.0"
     inkscape:pageshadow="2"
     inkscape:zoom="1"
     inkscape:cx="63.392499"
     inkscape:cy="148.35826"
     inkscape:document-units="mm"
     inkscape:current-layer="text22"
     showgrid="false"
     showborder="false"
     inkscape:window-width="1920"
     inkscape:window-height="1017"
     inkscape:window-x="-8"
     inkscape:window-y="-8"
     inkscape:window-maximized="1" />
  <metadata
     id="metadata5">
    <rdf:RDF>
      <cc:Work
         rdf:about="">
        <dc:format>image/svg+xml</dc:format>
        <dc:type
           rdf:resource="http://purl.org/dc/dcmitype/StillImage" />
        <dc:title></dc:title>
      </cc:Work>
    </rdf:RDF>
  </metadata>
  <g
     inkscape:label="Ebene 1"
     inkscape:groupmode="layer"
     id="layer1">
    <g
       aria-label="SyAn"
       style="font-style:normal;font-weight:normal;font-size:50.79999924px;line-height:1.25;font-family:sans-serif;letter-spacing:0px;word-spacing:0px;fill:#000000;fill-opacity:1;stroke:none;stroke-width:0.26458332"
       id="text22">
      <path
         style="font-size:50.79999924px;stroke-width:0.99999994"
         d="M 61.125 940.08203 C 45.812496 940.08203 33.781249 943.64454 25.03125 950.76953 C 16.343749 957.89455 12 967.64453 12 980.01953 C 12 990.70703 15.156248 999.05076 21.46875 1005.0508 C 27.781249 1011.0508 37.999996 1015.457 52.125 1018.2695 L 63.65625 1020.5195 C 73.28125 1022.457 80.1875 1025.3633 84.375 1029.2383 C 88.624998 1033.1133 90.75 1038.4883 90.75 1045.3633 C 90.75 1053.2383 87.812498 1059.3008 81.9375 1063.5508 C 76.062499 1067.8008 67.71875 1069.9258 56.90625 1069.9258 C 49.781248 1069.9258 42.531251 1068.832 35.15625 1066.6445 C 27.781249 1064.457 20.250001 1061.207 12.5625 1056.8945 L 12.5625 1076.3945 C 20.5625 1079.332 28.281249 1081.5508 35.71875 1083.0508 C 43.21875 1084.5508 50.281247 1085.3008 56.90625 1085.3008 C 74.46875 1085.3008 87.781249 1081.8008 96.84375 1074.8008 C 105.96875 1067.8008 110.53125 1057.5195 110.53125 1043.957 C 110.53125 1032.582 107.15625 1023.5195 100.40625 1016.7695 C 93.718751 1009.957 83.312502 1005.207 69.1875 1002.5195 L 57.75 1000.1758 C 47.374998 998.23827 40.312501 995.70705 36.5625 992.58203 C 32.875001 989.39455 31.03125 984.70705 31.03125 978.51953 C 31.03125 971.14454 33.812501 965.45703 39.375 961.45703 C 45.000005 957.45703 52.968751 955.45703 63.28125 955.45703 C 69.218749 955.45703 75.375 956.30077 81.75 957.98828 C 88.125 959.67576 94.892914 962.2663 102.09375 965.67578 C 106.12464 967.58434 112.83773 972.47399 114.9375 977.58203 L 157.40625 1080.8945 L 154.3125 1088.7695 C 151.125 1097.1445 148.21875 1102.457 145.59375 1104.707 C 142.96875 1106.957 139.28125 1108.082 134.53125 1108.082 L 124.40625 1108.082 L 12.5625 1108.082 L 12.5625 1122.5195 L 124.40625 1122.5195 L 138.1875 1122.5195 C 145.9375 1122.5195 152.125 1120.6133 156.75 1116.8008 C 161.375 1112.9883 166.125 1104.832 171 1092.332 L 190.125 1044.9883 L 253.21875 1044.9883 L 265.96875 1080.8945 L 283.3125 1080.8945 L 283.3125 1021.5508 C 283.3125 1011.3008 286.00001 1003.207 291.375 997.26953 C 296.75002 991.33204 304.09377 988.36328 313.40625 988.36328 C 321.15627 988.36328 326.96875 990.83203 330.84375 995.76953 C 334.71875 1000.707 336.65625 1008.1445 336.65625 1018.082 L 336.65625 1080.8945 L 353.90625 1080.8945 L 353.90625 1017.5195 C 353.90625 1003.0195 350.81249 992.05079 344.625 984.61328 C 338.43747 977.11329 329.31249 973.36328 317.25 973.36328 C 309.9375 973.36328 303.46875 974.92579 297.84375 978.05078 C 292.28124 981.1758 287.4375 985.89454 283.3125 992.20703 L 283.3125 975.89453 L 265.96875 975.89453 L 265.96875 1031.9043 L 232.13477 947.71094 L 210.66602 947.71094 L 165.95508 1059.5176 L 133.21875 977.58203 C 129.08613 967.23853 123.15087 953.68759 102.09375 947.20703 C 94.915598 944.99788 88 943.05078 81.1875 941.86328 C 74.375 940.67578 67.6875 940.08203 61.125 940.08203 z M 221.88867 966.18945 L 247.3125 1029.2383 L 196.36133 1029.2383 L 221.88867 966.18945 z "
         transform="scale(0.26458333)"
         id="path33" />
    </g>
  </g>
</svg>
